Practical Day 4 – Practicals for peer review
…
# part 1
common_routes <- flights |>
  group_by(origin, dest) |>
  summarise(unique_airlines = n_distinct(carrier), .groups = "drop") |>
  filter(unique_airlines > 1)

cat("These are the routes flown by multiple airlines:")

These are the routes flown by multiple airlines:

Code

common_routes

# A tibble: 128 × 3
   origin dest  unique_airlines
   <chr>  <chr>           <int>
 1 EWR    ATL                 4
 2 EWR    AUS                 2
 3 EWR    BDL                 2
 4 EWR    BNA                 2
 5 EWR    BOS                 3
 6 EWR    BWI                 2
 7 EWR    CHS                 2
 8 EWR    CLE                 2
 9 EWR    CLT                 3
10 EWR    CVG                 2
# ℹ 118 more rows
…
print("These are the average arrival delays per route per airline, along with the airline's name:")

[1] "These are the average arrival delays per route per airline, along with the airline's name:"

Code

avg_arr_delay_by_airline

# A tibble: 343 × 5
   origin dest  carrier avg_arr_delay name                    
   <chr>  <chr> <chr>           <dbl> <chr>                   
 1 EWR    ATL   9E              -6.25 Endeavor Air Inc.       
 2 EWR    ATL   DL              10.0  Delta Air Lines Inc.    
 3 EWR    ATL   EV              19.5  ExpressJet Airlines Inc.
 4 EWR    ATL   UA              10.5  United Air Lines Inc.   
 5 EWR    AUS   UA               4.28 United Air Lines Inc.   
 6 EWR    AUS   WN             -11.2  Southwest Airlines Co.  
 7 EWR    BDL   EV               6.78 ExpressJet Airlines Inc.
 8 EWR    BDL   UA              22.6  United Air Lines Inc.   
 9 EWR    BNA   EV              17.7  ExpressJet Airlines Inc.
10 EWR    BNA   WN              -2.13 Southwest Airlines Co.  
# ℹ 333 more rows
…
print("These are the airlines with the worst and best average arrival delays:")

[1] "These are the airlines with the worst and best average arrival delays:"

Code

best_worst_airline_per_route

# A tibble: 128 × 6
   origin dest  worst_airline best_airline max_delay min_delay
   <chr>  <chr> <chr>         <chr>            <dbl>     <dbl>
 1 EWR    ATL   EV            9E               19.5     -6.25 
 2 EWR    AUS   UA            WN                4.28   -11.2  
 3 EWR    BDL   UA            EV               22.6      6.78 
 4 EWR    BNA   EV            WN               17.7     -2.13 
 5 EWR    BOS   B6            EV                6.87    -4.01 
 6 EWR    BWI   EV            WN               20.1      5.95 
 7 EWR    CHS   EV            UA               16.2    -14    
 8 EWR    CLE   UA            EV                5.97    -3.71 
 9 EWR    CLT   EV            US               20.5      0.920
10 EWR    CVG   EV            9E               21.2      1.40 
# ℹ 118 more rows
…
